%YAML 1.1
%TAG !u! tag:unity3d.com,2011:
--- !u!1001 &8797528653995286603
PrefabInstance:
  m_ObjectHideFlags: 0
  serializedVersion: 2
  m_Modification:
    serializedVersion: 3
    m_TransformParent: {fileID: 0}
    m_Modifications:
    - target: {fileID: 1509230045425592786, guid: ca30b0c44be96c0418e9c5160600bc3d, type: 3}
      propertyPath: m_LocalPosition.x
      value: 0
      objectReference: {fileID: 0}
    - target: {fileID: 1509230045425592786, guid: ca30b0c44be96c0418e9c5160600bc3d, type: 3}
      propertyPath: m_LocalPosition.y
      value: 0
      objectReference: {fileID: 0}
    - target: {fileID: 1509230045425592786, guid: ca30b0c44be96c0418e9c5160600bc3d, type: 3}
      propertyPath: m_LocalPosition.z
      value: 0
      objectReference: {fileID: 0}
    - target: {fileID: 1509230045425592786, guid: ca30b0c44be96c0418e9c5160600bc3d, type: 3}
      propertyPath: m_LocalRotation.w
      value: 1
      objectReference: {fileID: 0}
    - target: {fileID: 1509230045425592786, guid: ca30b0c44be96c0418e9c5160600bc3d, type: 3}
      propertyPath: m_LocalRotation.x
      value: 0
      objectReference: {fileID: 0}
    - target: {fileID: 1509230045425592786, guid: ca30b0c44be96c0418e9c5160600bc3d, type: 3}
      propertyPath: m_LocalRotation.y
      value: 0
      objectReference: {fileID: 0}
    - target: {fileID: 1509230045425592786, guid: ca30b0c44be96c0418e9c5160600bc3d, type: 3}
      propertyPath: m_LocalRotation.z
      value: 0
      objectReference: {fileID: 0}
    - target: {fileID: 1509230045425592786, guid: ca30b0c44be96c0418e9c5160600bc3d, type: 3}
      propertyPath: m_LocalEulerAnglesHint.x
      value: 0
      objectReference: {fileID: 0}
    - target: {fileID: 1509230045425592786, guid: ca30b0c44be96c0418e9c5160600bc3d, type: 3}
      propertyPath: m_LocalEulerAnglesHint.y
      value: 0
      objectReference: {fileID: 0}
    - target: {fileID: 1509230045425592786, guid: ca30b0c44be96c0418e9c5160600bc3d, type: 3}
      propertyPath: m_LocalEulerAnglesHint.z
      value: 0
      objectReference: {fileID: 0}
    - target: {fileID: 8999346344792368100, guid: ca30b0c44be96c0418e9c5160600bc3d, type: 3}
      propertyPath: m_Name
      value: Enemy
      objectReference: {fileID: 0}
    m_RemovedComponents: []
    m_RemovedGameObjects: []
    m_AddedGameObjects: []
    m_AddedComponents:
    - targetCorrespondingSourceObject: {fileID: 8999346344792368100, guid: ca30b0c44be96c0418e9c5160600bc3d, type: 3}
      insertIndex: -1
      addedObject: {fileID: -7317805996738403956}
    - targetCorrespondingSourceObject: {fileID: 8999346344792368100, guid: ca30b0c44be96c0418e9c5160600bc3d, type: 3}
      insertIndex: -1
      addedObject: {fileID: -7059025191714492741}
    - targetCorrespondingSourceObject: {fileID: 8999346344792368100, guid: ca30b0c44be96c0418e9c5160600bc3d, type: 3}
      insertIndex: -1
      addedObject: {fileID: 2823571377212705132}
  m_SourcePrefab: {fileID: 100100000, guid: ca30b0c44be96c0418e9c5160600bc3d, type: 3}
--- !u!1 &500744408748688303 stripped
GameObject:
  m_CorrespondingSourceObject: {fileID: 8999346344792368100, guid: ca30b0c44be96c0418e9c5160600bc3d, type: 3}
  m_PrefabInstance: {fileID: 8797528653995286603}
  m_PrefabAsset: {fileID: 0}
--- !u!114 &-7317805996738403956
MonoBehaviour:
  m_ObjectHideFlags: 0
  m_CorrespondingSourceObject: {fileID: 0}
  m_PrefabInstance: {fileID: 0}
  m_PrefabAsset: {fileID: 0}
  m_GameObject: {fileID: 500744408748688303}
  m_Enabled: 1
  m_EditorHideFlags: 0
  m_Script: {fileID: 11500000, guid: f92667c6bf843c143bdf26958d544e2b, type: 3}
  m_Name: 
  m_EditorClassIdentifier: 
--- !u!114 &-7059025191714492741
MonoBehaviour:
  m_ObjectHideFlags: 0
  m_CorrespondingSourceObject: {fileID: 0}
  m_PrefabInstance: {fileID: 0}
  m_PrefabAsset: {fileID: 0}
  m_GameObject: {fileID: 500744408748688303}
  m_Enabled: 1
  m_EditorHideFlags: 0
  m_Script: {fileID: 11500000, guid: 072f3a2c5dfdba84180e7c5622e62a16, type: 3}
  m_Name: 
  m_EditorClassIdentifier: 
  chaseDistance: 5
  suspicionTime: 5
--- !u!136 &2823571377212705132
CapsuleCollider:
  m_ObjectHideFlags: 0
  m_CorrespondingSourceObject: {fileID: 0}
  m_PrefabInstance: {fileID: 0}
  m_PrefabAsset: {fileID: 0}
  m_GameObject: {fileID: 500744408748688303}
  m_Material: {fileID: 0}
  m_IncludeLayers:
    serializedVersion: 2
    m_Bits: 0
  m_ExcludeLayers:
    serializedVersion: 2
    m_Bits: 0
  m_LayerOverridePriority: 0
  m_IsTrigger: 0
  m_ProvidesContacts: 0
  m_Enabled: 1
  serializedVersion: 2
  m_Radius: 0.5
  m_Height: 1
  m_Direction: 1
  m_Center: {x: 0, y: 1, z: 0}
